-- Merging decision tree log ---
manifest
ADDED from C:\Users\Praveen\Downloads\GPMaster\app\src\main\AndroidManifest.xml:2:1-151:12
	package
		ADDED from C:\Users\Praveen\Downloads\GPMaster\app\src\main\AndroidManifest.xml:4:5-25
		INJECTED from C:\Users\Praveen\Downloads\GPMaster\app\src\main\AndroidManifest.xml
		INJECTED from C:\Users\Praveen\Downloads\GPMaster\app\src\main\AndroidManifest.xml
	tools:node
		ADDED from C:\Users\Praveen\Downloads\GPMaster\app\src\main\AndroidManifest.xml:5:5-25
	android:versionName
		INJECTED from C:\Users\Praveen\Downloads\GPMaster\app\src\main\AndroidManifest.xml
		INJECTED from C:\Users\Praveen\Downloads\GPMaster\app\src\main\AndroidManifest.xml
	xmlns:tools
		ADDED from C:\Users\Praveen\Downloads\GPMaster\app\src\main\AndroidManifest.xml:3:5-51
	xmlns:android
		ADDED from C:\Users\Praveen\Downloads\GPMaster\app\src\main\AndroidManifest.xml:2:11-69
	android:versionCode
		INJECTED from C:\Users\Praveen\Downloads\GPMaster\app\src\main\AndroidManifest.xml
		INJECTED from C:\Users\Praveen\Downloads\GPMaster\app\src\main\AndroidManifest.xml
uses-permission#android.permission.INTERNET
ADDED from C:\Users\Praveen\Downloads\GPMaster\app\src\main\AndroidManifest.xml:7:5-67
	android:name
		ADDED from C:\Users\Praveen\Downloads\GPMaster\app\src\main\AndroidManifest.xml:7:22-64
uses-permission#android.permission.ACCESS_FINE_LOCATION
ADDED from C:\Users\Praveen\Downloads\GPMaster\app\src\main\AndroidManifest.xml:8:5-79
	android:name
		ADDED from C:\Users\Praveen\Downloads\GPMaster\app\src\main\AndroidManifest.xml:8:22-76
uses-permission#android.permission.ACCESS_COARSE_LOCATION
ADDED from C:\Users\Praveen\Downloads\GPMaster\app\src\main\AndroidManifest.xml:9:5-81
	android:name
		ADDED from C:\Users\Praveen\Downloads\GPMaster\app\src\main\AndroidManifest.xml:9:22-78
uses-permission#android.permission.CAMERA
ADDED from C:\Users\Praveen\Downloads\GPMaster\app\src\main\AndroidManifest.xml:10:5-65
	android:name
		ADDED from C:\Users\Praveen\Downloads\GPMaster\app\src\main\AndroidManifest.xml:10:22-62
uses-permission#android.permission.ACCESS_NETWORK_STATE
ADDED from C:\Users\Praveen\Downloads\GPMaster\app\src\main\AndroidManifest.xml:11:5-79
	android:name
		ADDED from C:\Users\Praveen\Downloads\GPMaster\app\src\main\AndroidManifest.xml:11:22-76
uses-permission#android.permission.READ_PHONE_STATE
ADDED from C:\Users\Praveen\Downloads\GPMaster\app\src\main\AndroidManifest.xml:12:5-75
	android:name
		ADDED from C:\Users\Praveen\Downloads\GPMaster\app\src\main\AndroidManifest.xml:12:22-72
uses-permission#android.permission.WRITE_EXTERNAL_STORAGE
ADDED from C:\Users\Praveen\Downloads\GPMaster\app\src\main\AndroidManifest.xml:13:5-81
	android:name
		ADDED from C:\Users\Praveen\Downloads\GPMaster\app\src\main\AndroidManifest.xml:13:22-78
uses-permission#android.permission.READ_EXTERNAL_STORAGE
ADDED from C:\Users\Praveen\Downloads\GPMaster\app\src\main\AndroidManifest.xml:14:5-80
	android:name
		ADDED from C:\Users\Praveen\Downloads\GPMaster\app\src\main\AndroidManifest.xml:14:22-77
uses-permission#android.permission.WRITE_SETTINGS
ADDED from C:\Users\Praveen\Downloads\GPMaster\app\src\main\AndroidManifest.xml:15:5-73
	android:name
		ADDED from C:\Users\Praveen\Downloads\GPMaster\app\src\main\AndroidManifest.xml:15:22-70
application
ADDED from C:\Users\Praveen\Downloads\GPMaster\app\src\main\AndroidManifest.xml:17:5-149:19
MERGED from [com.google.android.gms:play-services-location:15.0.1] C:\Users\Praveen\.android\build-cache\74ae879e0bad0cf0b8cb7c5fb0ee788b3b110b17\output\AndroidManifest.xml:7:5-20
MERGED from [com.google.android.gms:play-services-places-placereport:15.0.1] C:\Users\Praveen\.android\build-cache\9381458350f735c526b98bcc26aef0a7de87eff2\output\AndroidManifest.xml:22:5-20
MERGED from [com.google.android.gms:play-services-identity:16.0.0] C:\Users\Praveen\.android\build-cache\f5fef734ee075c3bae3e733f805d45cc962c8847\output\AndroidManifest.xml:22:5-20
MERGED from [com.google.android.gms:play-services-auth:16.0.1] C:\Users\Praveen\.android\build-cache\06bdd4f44d0aa61674b5f125f3dd3c43af0ea251\output\AndroidManifest.xml:22:5-37:19
MERGED from [com.google.android.gms:play-services-base:16.0.1] C:\Users\Praveen\.android\build-cache\bf1ce58ec1d137b62da7104e05c9990595dcf3c1\output\AndroidManifest.xml:22:5-27:19
MERGED from [com.google.android.gms:play-services-tasks:16.0.1] C:\Users\Praveen\.android\build-cache\35bc9cfca461616d9211d59cf688b96a069800fa\output\AndroidManifest.xml:7:5-20
MERGED from [com.google.android.gms:play-services-basement:16.0.1] C:\Users\Praveen\.android\build-cache\359402531f223b0c245ee32452100813361e65b3\output\AndroidManifest.xml:22:5-26:19
MERGED from [com.android.support:support-v4:26.1.0] C:\Users\Praveen\.android\build-cache\314e6293c43be7c0b0589bd51ed8c32ec1229a9f\output\AndroidManifest.xml:25:5-29:19
MERGED from [com.android.support:support-media-compat:26.1.0] C:\Users\Praveen\.android\build-cache\978b0cb3909459d82180e5624cea22d271b01430\output\AndroidManifest.xml:25:5-29:19
MERGED from [com.android.support:support-fragment:26.1.0] C:\Users\Praveen\.android\build-cache\c7018e3a0d830aa47fc0f4ec10e250c75402d63e\output\AndroidManifest.xml:25:5-29:19
MERGED from [com.android.support:support-core-ui:26.1.0] C:\Users\Praveen\.android\build-cache\b99642a8a5fef0285bfb6641802954cd1abbe2fd\output\AndroidManifest.xml:25:5-29:19
MERGED from [com.android.support:support-core-utils:26.1.0] C:\Users\Praveen\.android\build-cache\961ca36adc7310a61732306a55af48a15475f939\output\AndroidManifest.xml:25:5-29:19
MERGED from [com.android.support:support-compat:26.1.0] C:\Users\Praveen\.android\build-cache\725172330615c085d55a519bd69b6c3b944abdb7\output\AndroidManifest.xml:25:5-29:19
MERGED from [android.arch.lifecycle:runtime:1.0.0] C:\Users\Praveen\.android\build-cache\2da1c716ffeba5d495e1b28d76691bae766b6302\output\AndroidManifest.xml:24:5-28:19
	android:label
		ADDED from C:\Users\Praveen\Downloads\GPMaster\app\src\main\AndroidManifest.xml:23:9-41
	android:hardwareAccelerated
		ADDED from C:\Users\Praveen\Downloads\GPMaster\app\src\main\AndroidManifest.xml:18:9-44
	android:allowBackup
		ADDED from C:\Users\Praveen\Downloads\GPMaster\app\src\main\AndroidManifest.xml:20:9-36
	android:icon
		ADDED from C:\Users\Praveen\Downloads\GPMaster\app\src\main\AndroidManifest.xml:21:9-45
	android:theme
		ADDED from C:\Users\Praveen\Downloads\GPMaster\app\src\main\AndroidManifest.xml:24:9-40
	android:name
		ADDED from C:\Users\Praveen\Downloads\GPMaster\app\src\main\AndroidManifest.xml:19:9-59
	android:usesCleartextTraffic
		ADDED from C:\Users\Praveen\Downloads\GPMaster\app\src\main\AndroidManifest.xml:22:9-44
meta-data#android.support.VERSION
ADDED from C:\Users\Praveen\Downloads\GPMaster\app\src\main\AndroidManifest.xml:25:9-28:36
REJECTED from [com.android.support:support-v4:26.1.0] C:\Users\Praveen\.android\build-cache\314e6293c43be7c0b0589bd51ed8c32ec1229a9f\output\AndroidManifest.xml:26:9-28:38
REJECTED from [com.android.support:support-media-compat:26.1.0] C:\Users\Praveen\.android\build-cache\978b0cb3909459d82180e5624cea22d271b01430\output\AndroidManifest.xml:26:9-28:38
REJECTED from [com.android.support:support-fragment:26.1.0] C:\Users\Praveen\.android\build-cache\c7018e3a0d830aa47fc0f4ec10e250c75402d63e\output\AndroidManifest.xml:26:9-28:38
REJECTED from [com.android.support:support-core-ui:26.1.0] C:\Users\Praveen\.android\build-cache\b99642a8a5fef0285bfb6641802954cd1abbe2fd\output\AndroidManifest.xml:26:9-28:38
REJECTED from [com.android.support:support-core-utils:26.1.0] C:\Users\Praveen\.android\build-cache\961ca36adc7310a61732306a55af48a15475f939\output\AndroidManifest.xml:26:9-28:38
REJECTED from [com.android.support:support-compat:26.1.0] C:\Users\Praveen\.android\build-cache\725172330615c085d55a519bd69b6c3b944abdb7\output\AndroidManifest.xml:26:9-28:38
	tools:node
		ADDED from C:\Users\Praveen\Downloads\GPMaster\app\src\main\AndroidManifest.xml:28:13-33
	android:value
		ADDED from C:\Users\Praveen\Downloads\GPMaster\app\src\main\AndroidManifest.xml:27:13-35
	android:name
		ADDED from C:\Users\Praveen\Downloads\GPMaster\app\src\main\AndroidManifest.xml:26:13-51
provider#android.support.v4.content.FileProvider
ADDED from C:\Users\Praveen\Downloads\GPMaster\app\src\main\AndroidManifest.xml:29:9-37:20
	android:authorities
		ADDED from C:\Users\Praveen\Downloads\GPMaster\app\src\main\AndroidManifest.xml:31:13-60
		INJECTED from C:\Users\Praveen\Downloads\GPMaster\app\src\main\AndroidManifest.xml
	android:grantUriPermissions
		ADDED from C:\Users\Praveen\Downloads\GPMaster\app\src\main\AndroidManifest.xml:33:13-47
	android:exported
		ADDED from C:\Users\Praveen\Downloads\GPMaster\app\src\main\AndroidManifest.xml:32:13-37
	android:name
		ADDED from C:\Users\Praveen\Downloads\GPMaster\app\src\main\AndroidManifest.xml:30:13-67
meta-data#android.support.FILE_PROVIDER_PATHS
ADDED from C:\Users\Praveen\Downloads\GPMaster\app\src\main\AndroidManifest.xml:34:13-36:58
	android:resource
		ADDED from C:\Users\Praveen\Downloads\GPMaster\app\src\main\AndroidManifest.xml:36:17-55
	android:name
		ADDED from C:\Users\Praveen\Downloads\GPMaster\app\src\main\AndroidManifest.xml:35:17-67
activity#com.hmwssb.SplashScreen
ADDED from C:\Users\Praveen\Downloads\GPMaster\app\src\main\AndroidManifest.xml:47:9-55:20
	android:label
		ADDED from C:\Users\Praveen\Downloads\GPMaster\app\src\main\AndroidManifest.xml:49:13-45
	android:name
		ADDED from C:\Users\Praveen\Downloads\GPMaster\app\src\main\AndroidManifest.xml:48:13-51
intent-filter#android.intent.action.MAIN+android.intent.category.LAUNCHER
ADDED from C:\Users\Praveen\Downloads\GPMaster\app\src\main\AndroidManifest.xml:50:13-54:29
action#android.intent.action.MAIN
ADDED from C:\Users\Praveen\Downloads\GPMaster\app\src\main\AndroidManifest.xml:51:17-69
	android:name
		ADDED from C:\Users\Praveen\Downloads\GPMaster\app\src\main\AndroidManifest.xml:51:25-66
category#android.intent.category.LAUNCHER
ADDED from C:\Users\Praveen\Downloads\GPMaster\app\src\main\AndroidManifest.xml:53:17-77
	android:name
		ADDED from C:\Users\Praveen\Downloads\GPMaster\app\src\main\AndroidManifest.xml:53:27-74
activity#com.hmwssb.MeterDetailsActivity
ADDED from C:\Users\Praveen\Downloads\GPMaster\app\src\main\AndroidManifest.xml:56:9-61:66
	android:clearTaskOnLaunch
		ADDED from C:\Users\Praveen\Downloads\GPMaster\app\src\main\AndroidManifest.xml:58:13-45
	android:screenOrientation
		ADDED from C:\Users\Praveen\Downloads\GPMaster\app\src\main\AndroidManifest.xml:60:13-49
	android:label
		ADDED from C:\Users\Praveen\Downloads\GPMaster\app\src\main\AndroidManifest.xml:59:13-45
	android:windowSoftInputMode
		ADDED from C:\Users\Praveen\Downloads\GPMaster\app\src\main\AndroidManifest.xml:61:13-54
	android:name
		ADDED from C:\Users\Praveen\Downloads\GPMaster\app\src\main\AndroidManifest.xml:57:13-59
activity#com.vajra.hmwsdatabase.Buttonwebservice
ADDED from C:\Users\Praveen\Downloads\GPMaster\app\src\main\AndroidManifest.xml:62:9-67:66
	android:clearTaskOnLaunch
		ADDED from C:\Users\Praveen\Downloads\GPMaster\app\src\main\AndroidManifest.xml:64:13-45
	android:screenOrientation
		ADDED from C:\Users\Praveen\Downloads\GPMaster\app\src\main\AndroidManifest.xml:66:13-49
	android:label
		ADDED from C:\Users\Praveen\Downloads\GPMaster\app\src\main\AndroidManifest.xml:65:13-45
	android:windowSoftInputMode
		ADDED from C:\Users\Praveen\Downloads\GPMaster\app\src\main\AndroidManifest.xml:67:13-54
	android:name
		ADDED from C:\Users\Praveen\Downloads\GPMaster\app\src\main\AndroidManifest.xml:63:13-67
activity#com.hmwssb.CustomerFeedback
ADDED from C:\Users\Praveen\Downloads\GPMaster\app\src\main\AndroidManifest.xml:68:9-73:66
	android:clearTaskOnLaunch
		ADDED from C:\Users\Praveen\Downloads\GPMaster\app\src\main\AndroidManifest.xml:70:13-45
	android:screenOrientation
		ADDED from C:\Users\Praveen\Downloads\GPMaster\app\src\main\AndroidManifest.xml:72:13-49
	android:label
		ADDED from C:\Users\Praveen\Downloads\GPMaster\app\src\main\AndroidManifest.xml:71:13-45
	android:windowSoftInputMode
		ADDED from C:\Users\Praveen\Downloads\GPMaster\app\src\main\AndroidManifest.xml:73:13-54
	android:name
		ADDED from C:\Users\Praveen\Downloads\GPMaster\app\src\main\AndroidManifest.xml:69:13-55
activity#com.hmwssb.NewConnection
ADDED from C:\Users\Praveen\Downloads\GPMaster\app\src\main\AndroidManifest.xml:74:9-80:66
	android:clearTaskOnLaunch
		ADDED from C:\Users\Praveen\Downloads\GPMaster\app\src\main\AndroidManifest.xml:76:13-45
	android:screenOrientation
		ADDED from C:\Users\Praveen\Downloads\GPMaster\app\src\main\AndroidManifest.xml:79:13-49
	android:label
		ADDED from C:\Users\Praveen\Downloads\GPMaster\app\src\main\AndroidManifest.xml:77:13-45
	android:launchMode
		ADDED from C:\Users\Praveen\Downloads\GPMaster\app\src\main\AndroidManifest.xml:78:13-43
	android:windowSoftInputMode
		ADDED from C:\Users\Praveen\Downloads\GPMaster\app\src\main\AndroidManifest.xml:80:13-54
	android:name
		ADDED from C:\Users\Praveen\Downloads\GPMaster\app\src\main\AndroidManifest.xml:75:13-52
activity#com.hmwssb.BuildingDetails
ADDED from C:\Users\Praveen\Downloads\GPMaster\app\src\main\AndroidManifest.xml:81:9-86:66
	android:clearTaskOnLaunch
		ADDED from C:\Users\Praveen\Downloads\GPMaster\app\src\main\AndroidManifest.xml:83:13-45
	android:screenOrientation
		ADDED from C:\Users\Praveen\Downloads\GPMaster\app\src\main\AndroidManifest.xml:85:13-49
	android:label
		ADDED from C:\Users\Praveen\Downloads\GPMaster\app\src\main\AndroidManifest.xml:84:13-45
	android:windowSoftInputMode
		ADDED from C:\Users\Praveen\Downloads\GPMaster\app\src\main\AndroidManifest.xml:86:13-54
	android:name
		ADDED from C:\Users\Praveen\Downloads\GPMaster\app\src\main\AndroidManifest.xml:82:13-54
activity#com.hmwssb.GbRemarksDetailsActivity
ADDED from C:\Users\Praveen\Downloads\GPMaster\app\src\main\AndroidManifest.xml:87:9-92:66
	android:clearTaskOnLaunch
		ADDED from C:\Users\Praveen\Downloads\GPMaster\app\src\main\AndroidManifest.xml:89:13-45
	android:screenOrientation
		ADDED from C:\Users\Praveen\Downloads\GPMaster\app\src\main\AndroidManifest.xml:91:13-49
	android:label
		ADDED from C:\Users\Praveen\Downloads\GPMaster\app\src\main\AndroidManifest.xml:90:13-45
	android:windowSoftInputMode
		ADDED from C:\Users\Praveen\Downloads\GPMaster\app\src\main\AndroidManifest.xml:92:13-54
	android:name
		ADDED from C:\Users\Praveen\Downloads\GPMaster\app\src\main\AndroidManifest.xml:88:13-63
activity#com.hmwssb.CanGenerationDetails
ADDED from C:\Users\Praveen\Downloads\GPMaster\app\src\main\AndroidManifest.xml:93:9-98:66
	android:clearTaskOnLaunch
		ADDED from C:\Users\Praveen\Downloads\GPMaster\app\src\main\AndroidManifest.xml:95:13-45
	android:screenOrientation
		ADDED from C:\Users\Praveen\Downloads\GPMaster\app\src\main\AndroidManifest.xml:97:13-49
	android:label
		ADDED from C:\Users\Praveen\Downloads\GPMaster\app\src\main\AndroidManifest.xml:96:13-45
	android:windowSoftInputMode
		ADDED from C:\Users\Praveen\Downloads\GPMaster\app\src\main\AndroidManifest.xml:98:13-54
	android:name
		ADDED from C:\Users\Praveen\Downloads\GPMaster\app\src\main\AndroidManifest.xml:94:13-59
activity#com.hmwssb.DisconnectionDetailsActivity
ADDED from C:\Users\Praveen\Downloads\GPMaster\app\src\main\AndroidManifest.xml:99:9-104:66
	android:clearTaskOnLaunch
		ADDED from C:\Users\Praveen\Downloads\GPMaster\app\src\main\AndroidManifest.xml:101:13-45
	android:screenOrientation
		ADDED from C:\Users\Praveen\Downloads\GPMaster\app\src\main\AndroidManifest.xml:103:13-49
	android:label
		ADDED from C:\Users\Praveen\Downloads\GPMaster\app\src\main\AndroidManifest.xml:102:13-45
	android:windowSoftInputMode
		ADDED from C:\Users\Praveen\Downloads\GPMaster\app\src\main\AndroidManifest.xml:104:13-54
	android:name
		ADDED from C:\Users\Praveen\Downloads\GPMaster\app\src\main\AndroidManifest.xml:100:13-67
activity#com.hmwssb.Boaringdetails
ADDED from C:\Users\Praveen\Downloads\GPMaster\app\src\main\AndroidManifest.xml:105:9-110:67
	android:clearTaskOnLaunch
		ADDED from C:\Users\Praveen\Downloads\GPMaster\app\src\main\AndroidManifest.xml:107:13-45
	android:screenOrientation
		ADDED from C:\Users\Praveen\Downloads\GPMaster\app\src\main\AndroidManifest.xml:109:13-49
	android:label
		ADDED from C:\Users\Praveen\Downloads\GPMaster\app\src\main\AndroidManifest.xml:108:13-45
	android:windowSoftInputMode
		ADDED from C:\Users\Praveen\Downloads\GPMaster\app\src\main\AndroidManifest.xml:110:13-55
	android:name
		ADDED from C:\Users\Praveen\Downloads\GPMaster\app\src\main\AndroidManifest.xml:106:13-53
activity#com.hmwssb.OTPActivity
ADDED from C:\Users\Praveen\Downloads\GPMaster\app\src\main\AndroidManifest.xml:111:9-116:61
	android:clearTaskOnLaunch
		ADDED from C:\Users\Praveen\Downloads\GPMaster\app\src\main\AndroidManifest.xml:113:13-45
	android:screenOrientation
		ADDED from C:\Users\Praveen\Downloads\GPMaster\app\src\main\AndroidManifest.xml:116:13-49
	android:label
		ADDED from C:\Users\Praveen\Downloads\GPMaster\app\src\main\AndroidManifest.xml:114:13-45
	android:windowSoftInputMode
		ADDED from C:\Users\Praveen\Downloads\GPMaster\app\src\main\AndroidManifest.xml:115:13-54
	android:name
		ADDED from C:\Users\Praveen\Downloads\GPMaster\app\src\main\AndroidManifest.xml:112:13-50
activity#com.hmwssb.ValidateOtp
ADDED from C:\Users\Praveen\Downloads\GPMaster\app\src\main\AndroidManifest.xml:117:9-121:61
	android:clearTaskOnLaunch
		ADDED from C:\Users\Praveen\Downloads\GPMaster\app\src\main\AndroidManifest.xml:119:13-45
	android:screenOrientation
		ADDED from C:\Users\Praveen\Downloads\GPMaster\app\src\main\AndroidManifest.xml:121:13-49
	android:label
		ADDED from C:\Users\Praveen\Downloads\GPMaster\app\src\main\AndroidManifest.xml:120:13-45
	android:name
		ADDED from C:\Users\Praveen\Downloads\GPMaster\app\src\main\AndroidManifest.xml:118:13-50
activity#com.hmwssb.HomeScreenTabActivity
ADDED from C:\Users\Praveen\Downloads\GPMaster\app\src\main\AndroidManifest.xml:122:9-127:66
	android:clearTaskOnLaunch
		ADDED from C:\Users\Praveen\Downloads\GPMaster\app\src\main\AndroidManifest.xml:124:13-45
	android:screenOrientation
		ADDED from C:\Users\Praveen\Downloads\GPMaster\app\src\main\AndroidManifest.xml:126:13-49
	android:label
		ADDED from C:\Users\Praveen\Downloads\GPMaster\app\src\main\AndroidManifest.xml:125:13-45
	android:windowSoftInputMode
		ADDED from C:\Users\Praveen\Downloads\GPMaster\app\src\main\AndroidManifest.xml:127:13-54
	android:name
		ADDED from C:\Users\Praveen\Downloads\GPMaster\app\src\main\AndroidManifest.xml:123:13-60
activity#com.hmwssb.GetotpActivity
ADDED from C:\Users\Praveen\Downloads\GPMaster\app\src\main\AndroidManifest.xml:128:9-133:66
	android:clearTaskOnLaunch
		ADDED from C:\Users\Praveen\Downloads\GPMaster\app\src\main\AndroidManifest.xml:130:13-45
	android:screenOrientation
		ADDED from C:\Users\Praveen\Downloads\GPMaster\app\src\main\AndroidManifest.xml:132:13-49
	android:label
		ADDED from C:\Users\Praveen\Downloads\GPMaster\app\src\main\AndroidManifest.xml:131:13-45
	android:windowSoftInputMode
		ADDED from C:\Users\Praveen\Downloads\GPMaster\app\src\main\AndroidManifest.xml:133:13-54
	android:name
		ADDED from C:\Users\Praveen\Downloads\GPMaster\app\src\main\AndroidManifest.xml:129:13-53
activity#com.hmwssb.Failedfiles
ADDED from C:\Users\Praveen\Downloads\GPMaster\app\src\main\AndroidManifest.xml:134:9-139:66
	android:clearTaskOnLaunch
		ADDED from C:\Users\Praveen\Downloads\GPMaster\app\src\main\AndroidManifest.xml:136:13-45
	android:screenOrientation
		ADDED from C:\Users\Praveen\Downloads\GPMaster\app\src\main\AndroidManifest.xml:138:13-49
	android:label
		ADDED from C:\Users\Praveen\Downloads\GPMaster\app\src\main\AndroidManifest.xml:137:13-45
	android:windowSoftInputMode
		ADDED from C:\Users\Praveen\Downloads\GPMaster\app\src\main\AndroidManifest.xml:139:13-54
	android:name
		ADDED from C:\Users\Praveen\Downloads\GPMaster\app\src\main\AndroidManifest.xml:135:13-50
meta-data#android.app.searchable
ADDED from C:\Users\Praveen\Downloads\GPMaster\app\src\main\AndroidManifest.xml:141:9-143:50
	android:resource
		ADDED from C:\Users\Praveen\Downloads\GPMaster\app\src\main\AndroidManifest.xml:143:13-47
	android:name
		ADDED from C:\Users\Praveen\Downloads\GPMaster\app\src\main\AndroidManifest.xml:142:13-50
receiver#com.hmwssb.SMSReceiver
ADDED from C:\Users\Praveen\Downloads\GPMaster\app\src\main\AndroidManifest.xml:144:9-148:20
	android:name
		ADDED from C:\Users\Praveen\Downloads\GPMaster\app\src\main\AndroidManifest.xml:144:19-46
intent-filter#com.google.android.gms.auth.api.phone.SMS_RETRIEVED
ADDED from C:\Users\Praveen\Downloads\GPMaster\app\src\main\AndroidManifest.xml:145:13-147:29
action#com.google.android.gms.auth.api.phone.SMS_RETRIEVED
ADDED from C:\Users\Praveen\Downloads\GPMaster\app\src\main\AndroidManifest.xml:146:17-94
	android:name
		ADDED from C:\Users\Praveen\Downloads\GPMaster\app\src\main\AndroidManifest.xml:146:25-91
uses-sdk
INJECTED from C:\Users\Praveen\Downloads\GPMaster\app\src\main\AndroidManifest.xml reason: use-sdk injection requested
MERGED from [com.google.android.gms:play-services-location:15.0.1] C:\Users\Praveen\.android\build-cache\74ae879e0bad0cf0b8cb7c5fb0ee788b3b110b17\output\AndroidManifest.xml:5:5-44
MERGED from [com.google.android.gms:play-services-places-placereport:15.0.1] C:\Users\Praveen\.android\build-cache\9381458350f735c526b98bcc26aef0a7de87eff2\output\AndroidManifest.xml:20:5-44
MERGED from [com.google.android.gms:play-services-identity:16.0.0] C:\Users\Praveen\.android\build-cache\f5fef734ee075c3bae3e733f805d45cc962c8847\output\AndroidManifest.xml:20:5-44
MERGED from [com.google.android.gms:play-services-auth:16.0.1] C:\Users\Praveen\.android\build-cache\06bdd4f44d0aa61674b5f125f3dd3c43af0ea251\output\AndroidManifest.xml:20:5-44
MERGED from [com.google.android.gms:play-services-auth-base:16.0.0] C:\Users\Praveen\.android\build-cache\923a31363d1068d70a0d0c798c51777e00f619fc\output\AndroidManifest.xml:5:5-44
MERGED from [com.google.android.gms:play-services-auth-api-phone:16.0.0] C:\Users\Praveen\.android\build-cache\3894b0ba201c351d77a1c15aace63089c04cf4d7\output\AndroidManifest.xml:5:5-44
MERGED from [com.google.android.gms:play-services-base:16.0.1] C:\Users\Praveen\.android\build-cache\bf1ce58ec1d137b62da7104e05c9990595dcf3c1\output\AndroidManifest.xml:20:5-44
MERGED from [com.google.android.gms:play-services-tasks:16.0.1] C:\Users\Praveen\.android\build-cache\35bc9cfca461616d9211d59cf688b96a069800fa\output\AndroidManifest.xml:5:5-44
MERGED from [com.google.android.gms:play-services-basement:16.0.1] C:\Users\Praveen\.android\build-cache\359402531f223b0c245ee32452100813361e65b3\output\AndroidManifest.xml:20:5-44
MERGED from [com.android.support:support-v4:26.1.0] C:\Users\Praveen\.android\build-cache\314e6293c43be7c0b0589bd51ed8c32ec1229a9f\output\AndroidManifest.xml:21:5-23:54
MERGED from [com.android.support:support-media-compat:26.1.0] C:\Users\Praveen\.android\build-cache\978b0cb3909459d82180e5624cea22d271b01430\output\AndroidManifest.xml:21:5-23:63
MERGED from [com.android.support:support-fragment:26.1.0] C:\Users\Praveen\.android\build-cache\c7018e3a0d830aa47fc0f4ec10e250c75402d63e\output\AndroidManifest.xml:21:5-23:60
MERGED from [com.android.support:support-core-ui:26.1.0] C:\Users\Praveen\.android\build-cache\b99642a8a5fef0285bfb6641802954cd1abbe2fd\output\AndroidManifest.xml:21:5-23:58
MERGED from [com.android.support:support-core-utils:26.1.0] C:\Users\Praveen\.android\build-cache\961ca36adc7310a61732306a55af48a15475f939\output\AndroidManifest.xml:21:5-23:61
MERGED from [com.android.support:support-compat:26.1.0] C:\Users\Praveen\.android\build-cache\725172330615c085d55a519bd69b6c3b944abdb7\output\AndroidManifest.xml:21:5-23:58
MERGED from [android.arch.lifecycle:runtime:1.0.0] C:\Users\Praveen\.android\build-cache\2da1c716ffeba5d495e1b28d76691bae766b6302\output\AndroidManifest.xml:20:5-22:41
	tools:overrideLibrary
		ADDED from [com.android.support:support-v4:26.1.0] C:\Users\Praveen\.android\build-cache\314e6293c43be7c0b0589bd51ed8c32ec1229a9f\output\AndroidManifest.xml:23:9-51
	android:targetSdkVersion
		INJECTED from C:\Users\Praveen\Downloads\GPMaster\app\src\main\AndroidManifest.xml
		INJECTED from C:\Users\Praveen\Downloads\GPMaster\app\src\main\AndroidManifest.xml
	android:minSdkVersion
		INJECTED from C:\Users\Praveen\Downloads\GPMaster\app\src\main\AndroidManifest.xml
		INJECTED from C:\Users\Praveen\Downloads\GPMaster\app\src\main\AndroidManifest.xml
activity#com.google.android.gms.auth.api.signin.internal.SignInHubActivity
ADDED from [com.google.android.gms:play-services-auth:16.0.1] C:\Users\Praveen\.android\build-cache\06bdd4f44d0aa61674b5f125f3dd3c43af0ea251\output\AndroidManifest.xml:23:9-27:75
	android:excludeFromRecents
		ADDED from [com.google.android.gms:play-services-auth:16.0.1] C:\Users\Praveen\.android\build-cache\06bdd4f44d0aa61674b5f125f3dd3c43af0ea251\output\AndroidManifest.xml:25:13-46
	android:exported
		ADDED from [com.google.android.gms:play-services-auth:16.0.1] C:\Users\Praveen\.android\build-cache\06bdd4f44d0aa61674b5f125f3dd3c43af0ea251\output\AndroidManifest.xml:26:13-37
	android:theme
		ADDED from [com.google.android.gms:play-services-auth:16.0.1] C:\Users\Praveen\.android\build-cache\06bdd4f44d0aa61674b5f125f3dd3c43af0ea251\output\AndroidManifest.xml:27:13-72
	android:name
		ADDED from [com.google.android.gms:play-services-auth:16.0.1] C:\Users\Praveen\.android\build-cache\06bdd4f44d0aa61674b5f125f3dd3c43af0ea251\output\AndroidManifest.xml:24:13-93
service#com.google.android.gms.auth.api.signin.RevocationBoundService
ADDED from [com.google.android.gms:play-services-auth:16.0.1] C:\Users\Praveen\.android\build-cache\06bdd4f44d0aa61674b5f125f3dd3c43af0ea251\output\AndroidManifest.xml:33:9-36:110
	android:exported
		ADDED from [com.google.android.gms:play-services-auth:16.0.1] C:\Users\Praveen\.android\build-cache\06bdd4f44d0aa61674b5f125f3dd3c43af0ea251\output\AndroidManifest.xml:35:13-36
	android:permission
		ADDED from [com.google.android.gms:play-services-auth:16.0.1] C:\Users\Praveen\.android\build-cache\06bdd4f44d0aa61674b5f125f3dd3c43af0ea251\output\AndroidManifest.xml:36:13-107
	android:name
		ADDED from [com.google.android.gms:play-services-auth:16.0.1] C:\Users\Praveen\.android\build-cache\06bdd4f44d0aa61674b5f125f3dd3c43af0ea251\output\AndroidManifest.xml:34:13-89
activity#com.google.android.gms.common.api.GoogleApiActivity
ADDED from [com.google.android.gms:play-services-base:16.0.1] C:\Users\Praveen\.android\build-cache\bf1ce58ec1d137b62da7104e05c9990595dcf3c1\output\AndroidManifest.xml:23:9-26:75
	android:exported
		ADDED from [com.google.android.gms:play-services-base:16.0.1] C:\Users\Praveen\.android\build-cache\bf1ce58ec1d137b62da7104e05c9990595dcf3c1\output\AndroidManifest.xml:25:13-37
	android:theme
		ADDED from [com.google.android.gms:play-services-base:16.0.1] C:\Users\Praveen\.android\build-cache\bf1ce58ec1d137b62da7104e05c9990595dcf3c1\output\AndroidManifest.xml:26:13-72
	android:name
		ADDED from [com.google.android.gms:play-services-base:16.0.1] C:\Users\Praveen\.android\build-cache\bf1ce58ec1d137b62da7104e05c9990595dcf3c1\output\AndroidManifest.xml:24:13-79
meta-data#com.google.android.gms.version
ADDED from [com.google.android.gms:play-services-basement:16.0.1] C:\Users\Praveen\.android\build-cache\359402531f223b0c245ee32452100813361e65b3\output\AndroidManifest.xml:23:9-25:69
	android:value
		ADDED from [com.google.android.gms:play-services-basement:16.0.1] C:\Users\Praveen\.android\build-cache\359402531f223b0c245ee32452100813361e65b3\output\AndroidManifest.xml:25:13-66
	android:name
		ADDED from [com.google.android.gms:play-services-basement:16.0.1] C:\Users\Praveen\.android\build-cache\359402531f223b0c245ee32452100813361e65b3\output\AndroidManifest.xml:24:13-58
meta-data#android.arch.lifecycle.VERSION
ADDED from [android.arch.lifecycle:runtime:1.0.0] C:\Users\Praveen\.android\build-cache\2da1c716ffeba5d495e1b28d76691bae766b6302\output\AndroidManifest.xml:25:9-27:47
	android:value
		ADDED from [android.arch.lifecycle:runtime:1.0.0] C:\Users\Praveen\.android\build-cache\2da1c716ffeba5d495e1b28d76691bae766b6302\output\AndroidManifest.xml:27:13-44
	android:name
		ADDED from [android.arch.lifecycle:runtime:1.0.0] C:\Users\Praveen\.android\build-cache\2da1c716ffeba5d495e1b28d76691bae766b6302\output\AndroidManifest.xml:26:13-58
